^E:\FACULTATE\ANUL 2\DS\PROIECT_TUIU-ANDREI_RABIN-KARP\PROIECT_TUIU-ANDREI_RABIN-KARP\MAIN.CPP|E:\FACULTATE\ANUL 2\DS\PROIECT_TUIU-ANDREI_RABIN-KARP\PROIECT_TUIU-ANDREI_RABIN-KARP\RABIN-KARP.CPP
E:\FACULTATE\ANUL 2\DS\PROIECT_TUIU-ANDREI_RABIN-KARP\PROIECT_TUIU-ANDREI_RABIN-KARP\DEBUG\VC140.PDB
E:\FACULTATE\ANUL 2\DS\PROIECT_TUIU-ANDREI_RABIN-KARP\PROIECT_TUIU-ANDREI_RABIN-KARP\DEBUG\VC140.IDB
E:\FACULTATE\ANUL 2\DS\PROIECT_TUIU-ANDREI_RABIN-KARP\PROIECT_TUIU-ANDREI_RABIN-KARP\DEBUG\MAIN.OBJ
E:\FACULTATE\ANUL 2\DS\PROIECT_TUIU-ANDREI_RABIN-KARP\PROIECT_TUIU-ANDREI_RABIN-KARP\DEBUG\RABIN-KARP.OBJ
^E:\FACULTATE\ANUL 2\DS\PROIECT_TUIU-ANDREI_RABIN-KARP\PROIECT_TUIU-ANDREI_RABIN-KARP\MAIN.CPP
E:\FACULTATE\ANUL 2\DS\PROIECT_TUIU-ANDREI_RABIN-KARP\PROIECT_TUIU-ANDREI_RABIN-KARP\DEBUG\VC140.PDB
E:\FACULTATE\ANUL 2\DS\PROIECT_TUIU-ANDREI_RABIN-KARP\PROIECT_TUIU-ANDREI_RABIN-KARP\DEBUG\VC140.IDB
E:\FACULTATE\ANUL 2\DS\PROIECT_TUIU-ANDREI_RABIN-KARP\PROIECT_TUIU-ANDREI_RABIN-KARP\DEBUG\MAIN.OBJ
^E:\FACULTATE\ANUL 2\DS\PROIECT_TUIU-ANDREI_RABIN-KARP\PROIECT_TUIU-ANDREI_RABIN-KARP\RABIN-KARP.CPP
E:\FACULTATE\ANUL 2\DS\PROIECT_TUIU-ANDREI_RABIN-KARP\PROIECT_TUIU-ANDREI_RABIN-KARP\DEBUG\VC140.PDB
^E:\FACULTATE\ANUL 2\DS\PROIECT_TUIU-ANDREI_RABIN-KARP\PROIECT_TUIU-ANDREI_RABIN-KARP\MAIN.CPP|E:\FACULTATE\ANUL 2\DS\PROIECT_TUIU-ANDREI_RABIN-KARP\PROIECT_TUIU-ANDREI_RABIN-KARP\RABIN-KARP-CHAR.CPP|E:\FACULTATE\ANUL 2\DS\PROIECT_TUIU-ANDREI_RABIN-KARP\PROIECT_TUIU-ANDREI_RABIN-KARP\RABIN-KARP.CPP
E:\FACULTATE\ANUL 2\DS\PROIECT_TUIU-ANDREI_RABIN-KARP\PROIECT_TUIU-ANDREI_RABIN-KARP\DEBUG\VC140.PDB
E:\FACULTATE\ANUL 2\DS\PROIECT_TUIU-ANDREI_RABIN-KARP\PROIECT_TUIU-ANDREI_RABIN-KARP\DEBUG\VC140.IDB
E:\FACULTATE\ANUL 2\DS\PROIECT_TUIU-ANDREI_RABIN-KARP\PROIECT_TUIU-ANDREI_RABIN-KARP\DEBUG\MAIN.OBJ
E:\FACULTATE\ANUL 2\DS\PROIECT_TUIU-ANDREI_RABIN-KARP\PROIECT_TUIU-ANDREI_RABIN-KARP\DEBUG\RABIN-KARP-CHAR.OBJ
E:\FACULTATE\ANUL 2\DS\PROIECT_TUIU-ANDREI_RABIN-KARP\PROIECT_TUIU-ANDREI_RABIN-KARP\DEBUG\RABIN-KARP.OBJ
^E:\FACULTATE\ANUL 2\DS\PROIECT_TUIU-ANDREI_RABIN-KARP\PROIECT_TUIU-ANDREI_RABIN-KARP\RABIN-KARP-CHAR.CPP
E:\FACULTATE\ANUL 2\DS\PROIECT_TUIU-ANDREI_RABIN-KARP\PROIECT_TUIU-ANDREI_RABIN-KARP\DEBUG\VC140.PDB
E:\FACULTATE\ANUL 2\DS\PROIECT_TUIU-ANDREI_RABIN-KARP\PROIECT_TUIU-ANDREI_RABIN-KARP\DEBUG\VC140.IDB
E:\FACULTATE\ANUL 2\DS\PROIECT_TUIU-ANDREI_RABIN-KARP\PROIECT_TUIU-ANDREI_RABIN-KARP\DEBUG\RABIN-KARP-CHAR.OBJ
^E:\FACULTATE\ANUL 2\DS\PROIECT_TUIU-ANDREI_RABIN-KARP\PROIECT_TUIU-ANDREI_RABIN-KARP\MAIN.CPP|E:\FACULTATE\ANUL 2\DS\PROIECT_TUIU-ANDREI_RABIN-KARP\PROIECT_TUIU-ANDREI_RABIN-KARP\RABIN-KARP-CHAR.CPP
E:\FACULTATE\ANUL 2\DS\PROIECT_TUIU-ANDREI_RABIN-KARP\PROIECT_TUIU-ANDREI_RABIN-KARP\DEBUG\VC140.PDB
E:\FACULTATE\ANUL 2\DS\PROIECT_TUIU-ANDREI_RABIN-KARP\PROIECT_TUIU-ANDREI_RABIN-KARP\DEBUG\VC140.IDB
E:\FACULTATE\ANUL 2\DS\PROIECT_TUIU-ANDREI_RABIN-KARP\PROIECT_TUIU-ANDREI_RABIN-KARP\DEBUG\MAIN.OBJ
E:\FACULTATE\ANUL 2\DS\PROIECT_TUIU-ANDREI_RABIN-KARP\PROIECT_TUIU-ANDREI_RABIN-KARP\DEBUG\RABIN-KARP-CHAR.OBJ
